<?xml version="1.0" encoding="UTF-8" standalone="no"?>
<svg
   xmlns:dc="http://purl.org/dc/elements/1.1/"
   xmlns:cc="http://creativecommons.org/ns#"
   xmlns:rdf="http://www.w3.org/1999/02/22-rdf-syntax-ns#"
   xmlns:svg="http://www.w3.org/2000/svg"
   xmlns="http://www.w3.org/2000/svg"
   xmlns:sodipodi="http://sodipodi.sourceforge.net/DTD/sodipodi-0.dtd"
   xmlns:inkscape="http://www.inkscape.org/namespaces/inkscape"
   id="a2962ec8-3590-4d69-840b-894390b5d756"
   data-name="Layer 1"
   width="535.87854"
   height="419.42334"
   viewBox="0 0 535.87855 419.42333"
   version="1.1"
   sodipodi:docname="calinternet.svg"
   inkscape:version="0.92.4 (5da689c313, 2019-01-14)">
  <metadata
     id="metadata59">
    <rdf:RDF>
      <cc:Work
         rdf:about="">
        <dc:format>image/svg+xml</dc:format>
        <dc:type
           rdf:resource="http://purl.org/dc/dcmitype/StillImage" />
        <dc:title>gradma</dc:title>
      </cc:Work>
    </rdf:RDF>
  </metadata>
  <defs
     id="defs57" />
  <sodipodi:namedview
     pagecolor="#ffffff"
     bordercolor="#666666"
     borderopacity="1"
     objecttolerance="10"
     gridtolerance="10"
     guidetolerance="10"
     inkscape:pageopacity="0"
     inkscape:pageshadow="2"
     inkscape:window-width="1858"
     inkscape:window-height="1016"
     id="namedview55"
     showgrid="false"
     inkscape:zoom="0.31436905"
     inkscape:cx="470.2085"
     inkscape:cy="375.36568"
     inkscape:window-x="62"
     inkscape:window-y="27"
     inkscape:window-maximized="1"
     inkscape:current-layer="a2962ec8-3590-4d69-840b-894390b5d756" />
  <title
     id="title2">gradma</title>
  <rect
     x="71.838509"
     y="216.72267"
     width="93"
     height="193"
     id="rect10"
     style="fill:#3f3d56" />
  <rect
     x="71.838509"
     y="216.72267"
     width="93"
     height="193"
     id="rect12"
     style="opacity:0.1" />
  <path
     d="m 131.93851,264.58265 h 106.2 v 150 h -65.14 a 41,41 0 0 1 -41,-41 v -109 z"
     id="path16"
     inkscape:connector-curvature="0"
     style="fill:#5f5478" />
  <rect
     x="164.81851"
     y="189.90266"
     width="113.73"
     height="113.73"
     id="rect18"
     style="fill:#d4a1a1" />
  <rect
     x="164.81851"
     y="200.90266"
     width="113.73"
     height="113.73"
     id="rect20"
     style="opacity:0.1" />
  <path
     d="m 369.67851,187.85265 c 0,0 110.3,50.7 106.88,76.05 -3.42,25.35 -26,28.77 -26,28.77 l -66.45,-32.2 -46.59,-37 z"
     id="path22"
     inkscape:connector-curvature="0"
     style="fill:#5f5478" />
  <path
     d="m 263.34851,241.86265 c 0.77,5 1.23,10.28 -0.59,15 -2,5.18 -6.45,9 -8.89,14 -3.65,7.42 -2.28,16.57 1.75,23.8 4.03,7.23 10.37,12.87 16.89,18 9.7,7.58 20.24,14.39 32,17.94 14.09,4.24 29.13,3.6 43.83,2.92 a 22,22 0 0 0 7.14,-1.14 21.53,21.53 0 0 0 4.5,-2.73 c 7.68,-5.58 15.48,-11.39 20.67,-19.34 a 40.73,40.73 0 0 0 3.56,-37.1 c -4.83,-11.77 -15.11,-20.92 -18.61,-33.15 -2.54,-8.88 -1.2,-18.34 -1.23,-27.58 a 8.74,8.74 0 0 0 -0.87,-4.5 c -1.39,-2.3 -4.41,-2.88 -7.08,-3.22 -18.1,-2.37 -36.37,-4.14 -54.65,-3.51 a 169.14,169.14 0 0 0 -27.56,3.11 c -4.91,1 -16.73,1.9 -18,8.21 -0.74,3.77 2.61,9.43 3.63,13 a 134.73,134.73 0 0 1 3.51,16.29 z"
     id="path24"
     inkscape:connector-curvature="0"
     style="fill:#fbbebe" />
  <path
     d="m 263.34851,241.86265 c 0.77,5 1.23,10.28 -0.59,15 -2,5.18 -6.45,9 -8.89,14 -3.65,7.42 -2.28,16.57 1.75,23.8 4.03,7.23 10.37,12.87 16.89,18 9.7,7.58 20.24,14.39 32,17.94 14.09,4.24 29.13,3.6 43.83,2.92 a 22,22 0 0 0 7.14,-1.14 21.53,21.53 0 0 0 4.5,-2.73 c 7.68,-5.58 15.48,-11.39 20.67,-19.34 a 40.73,40.73 0 0 0 3.56,-37.1 c -4.83,-11.77 -15.11,-20.92 -18.61,-33.15 -2.54,-8.88 -1.2,-18.34 -1.23,-27.58 a 8.74,8.74 0 0 0 -0.87,-4.5 c -1.39,-2.3 -4.41,-2.88 -7.08,-3.22 -18.1,-2.37 -36.37,-4.14 -54.65,-3.51 a 169.14,169.14 0 0 0 -27.56,3.11 c -4.91,1 -16.73,1.9 -18,8.21 -0.74,3.77 2.61,9.43 3.63,13 a 134.73,134.73 0 0 1 3.51,16.29 z"
     id="path26"
     inkscape:connector-curvature="0"
     style="opacity:0.1" />
  <circle
     cx="184.68851"
     cy="148.11266"
     r="86.330002"
     id="circle28"
     style="fill:#d4a1a1" />
  <circle
     cx="312.46851"
     cy="160.10265"
     r="86.330002"
     id="circle30"
     style="fill:#fbbebe" />
  <path
     d="m 361.73851,112.23265 c -3.72,1.64 -6.92,4.27 -10.54,6.12 -10.41,5.31 -22.91,3.6 -34.32,1.06 -6.05,-1.35 -13.15,-4 -14.3,-10.08 -1.23,-6.46 5.16,-11.679997 7.2,-17.919997 a 40,40 0 0 0 -28.09,5.12 c -10.51,6.429997 -18.19,17.819997 -30.1,20.939997 a 11,11 0 0 1 -6.75,0 10.15,10.15 0 0 1 -5.05,-5.23 c -5.46,-11.29 2,-24.209997 3.87,-36.619997 1.53,-10.34 -0.55,-22.29 6.44,-30.06 7.22,-8 19.81,-6.85 30.35,-9.18 a 42.14,42.14 0 0 0 19.34,-10.06 34.87,34.87 0 0 1 4.82,-4.12 19.13,19.13 0 0 1 7.26,-2.42 42.6,42.6 0 0 1 28.7,5.78 c 6,3.67 11.14,8.89 17.86,10.85 3.6,1.06 7.41,1.09 11.12,1.62 a 42.37,42.37 0 0 1 33.56,28.33 c 0.88,2.74 1.5,5.62 3.08,8 3.13,4.77 9.21,6.56 13.5,10.32 4.29,3.76 6.52,9.38 8.38,14.78 a 164.08,164.08 0 0 1 8.39,45.189997 c 0.36,8.37 -0.18,17.47 -5.54,23.9 a 55,55 0 0 0 -3.6,4.2 c -3.71,5.55 -1.71,13 -2.52,19.59 a 22.79,22.79 0 0 1 -7.13,13.88 5.27,5.27 0 0 1 -3.6,1.73 c -1.6,-0.08 -2.84,-1.42 -3.71,-2.77 -3.06,-4.76 -3.84,-10.61 -6.09,-15.81 -2.25,-5.2 -7.08,-10.17 -12.69,-9.38 -1.43,0.2 -2.78,0.76 -4.21,1 -4,0.64 -8.11,-1.62 -10.62,-4.84 -2.51,-3.22 -3.7,-7.27 -4.54,-11.26 -2.38,-11.35 -2.29,-23 -1.38,-34.55 0.35,-4.46 2.92,-12.39 1.73,-16.61 -1.19,-4.22 -7.35,-3.04 -10.82,-1.5 z"
     id="path32"
     style="fill:#502d16"
     inkscape:connector-curvature="0" />
  <path
     d="m 322.66851,317.06265 a 66.44,66.44 0 0 1 -32.58,-28 c -5.47,-9.36 -8.61,-20 -14.82,-28.92 -9.05,-13 -26.12,-6.45 -41.93,-6.53 -20.25,-0.1 -36.8,-2.77 -53.43,8.79 -11.08,7.69 -23,16.56 -26,29.69 -2.65,11.38 2.08,23.52 -0.57,34.91 -1.79,7.68 0.49,14.74 -0.81,22.53 -1.83,11 -3.3,21.27 2.33,30.88 l 19.44,33.18 211,0.8 c -0.13,0 -0.39,0.39 -0.52,0.39 h 151.1 c -0.27,-7.15 -0.72,-14.18 -3,-20.94 -2.41,-7 -5.86,-13.6 -9.29,-20.16 l -38.12,-72.79 c -7.28,-13.92 -15.25,-28.56 -28.85,-36.42 -7.43,-4.29 -16,-6.18 -23.89,-9.43 -10.35,-4.23 -13.12,-1.27 -23.92,-4.17 -10.8,-2.9 -30.84,-10.46 -36.73,-1 -4.64,7.48 -3.28,17.06 -5,25.69 -1.56,7.84 -5.72,14.92 -10.33,21.46 -4.23,6 -9,11.79 -15,16 -6,4.21 -12.24,6.77 -19.08,4.04 z"
     id="path34"
     inkscape:connector-curvature="0"
     style="fill:#3f3d56" />
  <path
     d="m 322.05851,358.79265 c 0,0 -71.25,5.48 -70.57,20.55 0,0 67.83,18.5 67.83,17.82 0,-0.68 2.74,-38.37 2.74,-38.37 z"
     id="path36"
     inkscape:connector-curvature="0"
     style="fill:#fbbebe" />
  <path
     d="m 234.36851,326.59265 c 0,0 5.48,43.16 25.34,51.38 19.86,8.22 82.91,9.59 82.91,9.59 l 42.47,27.41 h -209.65 c 0,0 -9.59,-113 0,-113 9.59,0 58.93,24.62 58.93,24.62 z"
     id="path38"
     inkscape:connector-curvature="0"
     style="fill:#3f3d56" />
  <path
     d="m 400.84851,310.14265 49.36,41.11 -134.28,3.43 c 0,0 -19.48,24 -11.45,30.84 8.03,6.84 45.7,11.64 45.7,11.64 l 34.94,17.81 146.86,-0.18 -48.88,-88.2 z"
     id="path40"
     inkscape:connector-curvature="0"
     style="fill:#3f3d56" />
  <path
     d="m 400.84851,310.14265 49.36,41.11 -134.28,3.43 c 0,0 -19.48,24 -11.45,30.84 8.03,6.84 45.7,11.64 45.7,11.64 l 34.94,17.81 146.86,-0.18 -48.88,-88.2 z"
     id="path42"
     inkscape:connector-curvature="0"
     style="opacity:0.1" />
  <polygon
     points="404.62,697.28 475.19,604.79 427.23,578.07 342.27,647.95 "
     id="polygon44"
     style="fill:#5f5478"
     transform="translate(-0.00148991,-331.29735)" />
  <path
     d="m 381.66851,322.48265 c 0,0 56.86,-10.28 67.14,-15.08 10.28,-4.8 51.4,-22.61 40.4,-8.9 -11,13.71 -15.75,14.38 -15.75,14.38 0,0 42.47,3.43 41.1,11.65 -1.37,8.22 -6.16,9.59 -6.16,9.59 0,0 17.81,10.28 13.7,13 -4.11,2.72 -1.37,12.33 -2.06,14.39 -0.69,2.06 4.8,13 -0.68,14.39 -5.48,1.39 -63.72,-1.37 -76,-4.11 -12.28,-2.74 -67.83,0.68 -67.83,0.68 z"
     id="path46"
     inkscape:connector-curvature="0"
     style="fill:#e0aaaa" />
  <path
     d="m 117.54851,230.33265 c 0,0 -21.92,26.72 0,58.92 21.92,32.2 67.14,69.2 91.81,75.36 24.67,6.16 188.41,8.91 188.41,8.91 0,0 7.54,-74 0,-76.74 -7.54,-2.74 -141.14,6.17 -159.64,-7.53 -18.5,-13.7 -74,-53.44 -90.43,-54.81 a 298.32,298.32 0 0 1 -30.15,-4.11 z"
     id="path48"
     inkscape:connector-curvature="0"
     style="fill:#5f5478" />
  <path
     d="m 240.82851,87.062653 a 103,103 0 0 0 -18.62,-5.83 c -31.44,-6.61 -61.72,30.349997 -54.22,61.079997 3,12.4 11.46,23.88 10.12,36.58 -1.26,12.07 -11.13,21.75 -13.17,33.71 a 13.25,13.25 0 0 0 0.75,8.1 c 1.9,3.85 6.35,5.83 8.59,9.49 3.77,6.16 -0.44,14.63 -6.72,18.21 -6.28,3.58 -13.84,3.72 -21,4.31 a 149,149 0 0 0 -26.6,4.65 c -4.94,1.34 -9.92,3 -13.91,6.2 -9.44,7.56 -10.74,21.79 -7.29,33.38 3.45,11.59 10.62,21.66 15.79,32.59 5.17,10.93 8.26,24 3.16,34.95 -5.34,11.47 -19.07,19.64 -18.51,32.29 0.15,3.41 1.41,6.75 1.17,10.15 -0.53,7.86 -9.29,13.23 -17.13,12.42 -7.84,-0.81 -14.53,-6.19 -19.55,-12.28 a 66,66 0 0 1 -14.76,-35.56 c -1.22,-12.68 1.26,-25.7 -1.72,-38.09 -2.77,-11.49 -9.95,-21.32 -16.14,-31.39 a 210.4,210.4 0 0 1 -31.05999991,-107.69 c -0.09,-9.59 0.5,-19.31 3.40000001,-28.45 3.64,-11.45 10.7199999,-21.45 15.9999999,-32.25 5.59,-11.43 18.66,-44.869997 30.47,-75.839997 a 75.84,75.84 0 0 1 76.89,-48.6699998 48.78,48.78 0 0 0 12.83,-0.3 c 7.62,-1.48 14.62,-5.23 22.13,-7.25 21,-5.64 45.24,4.31 56.22,23.1199998 3.19,5.47 5.34,11.56 9.08,16.67 3.34,4.56 7.79,8.15 11.66,12.26 a 60.77,60.77 0 0 1 5.89,7.31"
     id="path50"
     inkscape:connector-curvature="0"
     style="fill:#3f3d56" />
</svg>
